/home/e20190004092/eclipse-workspace/tp1bis/src/test/java/fds/tp1/AppTest.java
/home/e20190004092/eclipse-workspace/tp1bis/src/test/java/fds/tp1/AppTestTest.java
/home/e20190004092/eclipse-workspace/tp1bis/src/test/java/oscour/tp1bis/AppTest.java
