fds/tp1/Soutenance.class
oscour/tp1bis/App.class
fds/tp1/ClasseMachin.class
fds/tp1/Planning.class
fds/tp1/Etudiant.class
fds/tp1/GestionTER.class
fds/tp1/nbrGrpSupANbrSujetException.class
fds/tp1/Enseignant.class
fds/tp1/Groupe.class
fds/tp1/sizeException.class
fds/tp1/App.class
fds/tp1/Sujet.class
fds/tp1/Hongrois.class
